%YAML 1.1
%TAG !u! tag:unity3d.com,2011:
--- !u!1 &650110402799737327
GameObject:
  m_ObjectHideFlags: 0
  m_CorrespondingSourceObject: {fileID: 0}
  m_PrefabInstance: {fileID: 0}
  m_PrefabAsset: {fileID: 0}
  serializedVersion: 6
  m_Component:
  - component: {fileID: 650110402799737325}
  - component: {fileID: 4872767361128609979}
  m_Layer: 2
  m_Name: ImpPistol
  m_TagString: Untagged
  m_Icon: {fileID: 0}
  m_NavMeshLayer: 0
  m_StaticEditorFlags: 0
  m_IsActive: 1
--- !u!4 &650110402799737325
Transform:
  m_ObjectHideFlags: 0
  m_CorrespondingSourceObject: {fileID: 0}
  m_PrefabInstance: {fileID: 0}
  m_PrefabAsset: {fileID: 0}
  m_GameObject: {fileID: 650110402799737327}
  m_LocalRotation: {x: 0, y: 0, z: 0, w: 1}
  m_LocalPosition: {x: 0, y: 0, z: 0}
  m_LocalScale: {x: 2, y: 2, z: 1}
  m_Children:
  - {fileID: 8366402168919622013}
  m_Father: {fileID: 0}
  m_RootOrder: 0
  m_LocalEulerAnglesHint: {x: 0, y: 0, z: 0}
--- !u!114 &4872767361128609979
MonoBehaviour:
  m_ObjectHideFlags: 0
  m_CorrespondingSourceObject: {fileID: 0}
  m_PrefabInstance: {fileID: 0}
  m_PrefabAsset: {fileID: 0}
  m_GameObject: {fileID: 650110402799737327}
  m_Enabled: 1
  m_EditorHideFlags: 0
  m_Script: {fileID: 11500000, guid: eec6cd09715e86a46ba76743ce8cb2d2, type: 3}
  m_Name: 
  m_EditorClassIdentifier: 
  sprite: Pistol
  flipRotation: 0
  unlimitedFireRate: 1
  coolDown: 0.45
  currCoolDown: 0
  bulletPrefab: {fileID: 6809615182347312879, guid: b1b73f01bf6df9646a1e9b84a474750f, type: 3}
  projectileSpeed: 25
  changableProjectileSpeed: 0
  knockbackForce: 15
--- !u!1001 &9151418626382191909
PrefabInstance:
  m_ObjectHideFlags: 0
  serializedVersion: 2
  m_Modification:
    m_TransformParent: {fileID: 650110402799737325}
    m_Modifications:
    - target: {fileID: 800286904932392024, guid: 7fe6888ec6534f14b885ca4afef4c3b5, type: 3}
      propertyPath: m_RootOrder
      value: 0
      objectReference: {fileID: 0}
    - target: {fileID: 800286904932392024, guid: 7fe6888ec6534f14b885ca4afef4c3b5, type: 3}
      propertyPath: m_LocalPosition.x
      value: 0
      objectReference: {fileID: 0}
    - target: {fileID: 800286904932392024, guid: 7fe6888ec6534f14b885ca4afef4c3b5, type: 3}
      propertyPath: m_LocalPosition.y
      value: 0
      objectReference: {fileID: 0}
    - target: {fileID: 800286904932392024, guid: 7fe6888ec6534f14b885ca4afef4c3b5, type: 3}
      propertyPath: m_LocalPosition.z
      value: 0
      objectReference: {fileID: 0}
    - target: {fileID: 800286904932392024, guid: 7fe6888ec6534f14b885ca4afef4c3b5, type: 3}
      propertyPath: m_LocalRotation.w
      value: 1
      objectReference: {fileID: 0}
    - target: {fileID: 800286904932392024, guid: 7fe6888ec6534f14b885ca4afef4c3b5, type: 3}
      propertyPath: m_LocalRotation.x
      value: 0
      objectReference: {fileID: 0}
    - target: {fileID: 800286904932392024, guid: 7fe6888ec6534f14b885ca4afef4c3b5, type: 3}
      propertyPath: m_LocalRotation.y
      value: 0
      objectReference: {fileID: 0}
    - target: {fileID: 800286904932392024, guid: 7fe6888ec6534f14b885ca4afef4c3b5, type: 3}
      propertyPath: m_LocalRotation.z
      value: 0
      objectReference: {fileID: 0}
    - target: {fileID: 800286904932392024, guid: 7fe6888ec6534f14b885ca4afef4c3b5, type: 3}
      propertyPath: m_LocalEulerAnglesHint.x
      value: 0
      objectReference: {fileID: 0}
    - target: {fileID: 800286904932392024, guid: 7fe6888ec6534f14b885ca4afef4c3b5, type: 3}
      propertyPath: m_LocalEulerAnglesHint.y
      value: 0
      objectReference: {fileID: 0}
    - target: {fileID: 800286904932392024, guid: 7fe6888ec6534f14b885ca4afef4c3b5, type: 3}
      propertyPath: m_LocalEulerAnglesHint.z
      value: 0
      objectReference: {fileID: 0}
    - target: {fileID: 5567908433253955048, guid: 7fe6888ec6534f14b885ca4afef4c3b5, type: 3}
      propertyPath: m_Name
      value: SpriteAK
      objectReference: {fileID: 0}
    m_RemovedComponents: []
  m_SourcePrefab: {fileID: 100100000, guid: 7fe6888ec6534f14b885ca4afef4c3b5, type: 3}
--- !u!4 &8366402168919622013 stripped
Transform:
  m_CorrespondingSourceObject: {fileID: 800286904932392024, guid: 7fe6888ec6534f14b885ca4afef4c3b5, type: 3}
  m_PrefabInstance: {fileID: 9151418626382191909}
  m_PrefabAsset: {fileID: 0}
